127.0.0.1 - - [22/Dec/2016:00:00:07 -0200] "GET /rest-1.0/api/login/leonardo@email.com/123 HTTP/1.1" 200 93
127.0.0.1 - - [22/Dec/2016:00:00:09 -0200] "GET /rest-1.0/api/login/leonardo@email.com/123 HTTP/1.1" 200 93
127.0.0.1 - - [22/Dec/2016:00:00:17 -0200] "GET /rest-1.0/api/login/leonardo@email.com/123 HTTP/1.1" 200 93
127.0.0.1 - - [22/Dec/2016:00:00:22 -0200] "GET /rest-1.0/api/login/leonardo@email.com/123 HTTP/1.1" 200 93
127.0.0.1 - - [22/Dec/2016:00:00:30 -0200] "GET /rest-1.0/api/login/leonardo@email.com/123 HTTP/1.1" 200 93
127.0.0.1 - - [22/Dec/2016:00:00:52 -0200] "GET /rest-1.0/api/login/leonardo@email.com/123 HTTP/1.1" 200 93
127.0.0.1 - - [22/Dec/2016:00:01:03 -0200] "GET /rest-1.0/api/login/leonardo@email.com/123 HTTP/1.1" 200 93
127.0.0.1 - - [22/Dec/2016:00:01:03 -0200] "GET /favicon.ico HTTP/1.1" 404 -
127.0.0.1 - - [22/Dec/2016:00:01:20 -0200] "GET /rest-1.0/api/login/leonardo@email.com/123 HTTP/1.1" 200 93
127.0.0.1 - - [22/Dec/2016:00:04:58 -0200] "GET /rest-1.0/api/login/leonardo@email.com/123 HTTP/1.1" 200 93
127.0.0.1 - - [22/Dec/2016:00:05:00 -0200] "GET /rest-1.0/api/login/leonardo@email.com/123 HTTP/1.1" 200 93
127.0.0.1 - - [22/Dec/2016:00:05:19 -0200] "GET /rest-1.0/api/login/leonardo@email.com/123 HTTP/1.1" 200 93
127.0.0.1 - - [22/Dec/2016:00:05:31 -0200] "GET /rest-1.0/api/login/leonardo@email.com/123 HTTP/1.1" 200 93
127.0.0.1 - - [22/Dec/2016:00:08:12 -0200] "GET /rest-1.0/api/login/leonardo@email.com/123 HTTP/1.1" 200 93
127.0.0.1 - - [22/Dec/2016:00:08:37 -0200] "GET /rest-1.0/api/login/leonardo@email.com/123 HTTP/1.1" 200 93
127.0.0.1 - - [22/Dec/2016:00:08:37 -0200] "GET /rest-1.0/api/pedido/leonardo@email.com HTTP/1.1" 200 1358
127.0.0.1 - - [22/Dec/2016:00:08:58 -0200] "GET /rest-1.0/api/login/leonardo@email.com/123 HTTP/1.1" 200 93
127.0.0.1 - - [22/Dec/2016:00:08:58 -0200] "GET /rest-1.0/api/pedido/leonardo@email.com HTTP/1.1" 200 1358
127.0.0.1 - - [22/Dec/2016:00:15:04 -0200] "GET /rest-1.0/api/login/leonardo@email.com/123 HTTP/1.1" 200 93
127.0.0.1 - - [22/Dec/2016:00:15:05 -0200] "GET /rest-1.0/api/pedido/leonardo@email.com HTTP/1.1" 200 1358
127.0.0.1 - - [22/Dec/2016:00:16:47 -0200] "GET /rest-1.0/api/login/leonardo@email.com/123 HTTP/1.1" 200 93
127.0.0.1 - - [22/Dec/2016:00:16:48 -0200] "GET /rest-1.0/api/pedido/leonardo@email.com HTTP/1.1" 200 1358
127.0.0.1 - - [22/Dec/2016:00:44:57 -0200] "GET /rest-1.0/api/login/leonardo@email.com/123 HTTP/1.1" 200 93
127.0.0.1 - - [22/Dec/2016:01:13:04 -0200] "POST /rest/api/pedido/inserir HTTP/1.1" 404 -
127.0.0.1 - - [22/Dec/2016:01:13:46 -0200] "POST /rest-1.0/api/pedido/inserir HTTP/1.1" 200 -
127.0.0.1 - - [22/Dec/2016:01:16:22 -0200] "POST /rest-1.0/api/pedido/inserir HTTP/1.1" 200 -
127.0.0.1 - - [22/Dec/2016:01:17:08 -0200] "POST /rest-1.0/api/pedido/inserir HTTP/1.1" 200 -
127.0.0.1 - - [22/Dec/2016:10:09:44 -0200] "GET /rest-1.0/api/login/leonardo@email.com/123 HTTP/1.1" 200 93
127.0.0.1 - - [22/Dec/2016:10:09:44 -0200] "GET /rest-1.0/api/pedido/leonardo@email.com HTTP/1.1" 200 1358
127.0.0.1 - - [22/Dec/2016:10:57:46 -0200] "GET /rest-1.0/api/login/leonardo@email.com/123 HTTP/1.1" 200 93
127.0.0.1 - - [22/Dec/2016:10:57:47 -0200] "GET /rest-1.0/api/pedido/leonardo@email.com HTTP/1.1" 200 1358
127.0.0.1 - - [22/Dec/2016:10:58:13 -0200] "OPTIONS /rest-1.0/api/pedido/inserir HTTP/1.1" 200 364
127.0.0.1 - - [22/Dec/2016:10:59:07 -0200] "OPTIONS /rest-1.0/api/pedido/inserir HTTP/1.1" 200 364
127.0.0.1 - - [22/Dec/2016:10:59:46 -0200] "GET /rest-1.0/api/pedido/leonardo@email.com HTTP/1.1" 200 1358
127.0.0.1 - - [22/Dec/2016:10:59:57 -0200] "GET /rest-1.0/api/login/leonardo@email.com/123 HTTP/1.1" 200 93
127.0.0.1 - - [22/Dec/2016:10:59:57 -0200] "GET /rest-1.0/api/pedido/leonardo@email.com HTTP/1.1" 200 1358
127.0.0.1 - - [22/Dec/2016:11:00:07 -0200] "OPTIONS /rest-1.0/api/pedido/inserir HTTP/1.1" 200 364
127.0.0.1 - - [22/Dec/2016:11:01:50 -0200] "GET /rest-1.0/api/pedido/leonardo@email.com HTTP/1.1" 200 1358
127.0.0.1 - - [22/Dec/2016:11:02:01 -0200] "OPTIONS /rest-1.0/api/pedido/inserir HTTP/1.1" 200 364
127.0.0.1 - - [22/Dec/2016:14:39:06 -0200] "POST /rest-1.0/api/pedido/inserir HTTP/1.1" 200 -
127.0.0.1 - - [22/Dec/2016:14:39:32 -0200] "POST /rest-1.0/api/pedido/inserir HTTP/1.1" 500 5509
127.0.0.1 - - [22/Dec/2016:14:40:45 -0200] "POST /rest-1.0/api/pedido/inserir HTTP/1.1" 200 -
127.0.0.1 - - [22/Dec/2016:14:41:09 -0200] "POST /rest-1.0/api/pedido/inserir HTTP/1.1" 500 5509
127.0.0.1 - - [22/Dec/2016:14:44:35 -0200] "POST /rest-1.0/api/pedido/inserir HTTP/1.1" 200 -
127.0.0.1 - - [22/Dec/2016:14:44:37 -0200] "POST /rest-1.0/api/pedido/inserir HTTP/1.1" 200 -
127.0.0.1 - - [22/Dec/2016:14:44:48 -0200] "POST /rest-1.0/api/pedido/inserir HTTP/1.1" 500 5465
127.0.0.1 - - [22/Dec/2016:14:44:48 -0200] "POST /rest-1.0/api/pedido/inserir HTTP/1.1" 500 5465
127.0.0.1 - - [22/Dec/2016:14:44:48 -0200] "POST /rest-1.0/api/pedido/inserir HTTP/1.1" 500 5465
127.0.0.1 - - [22/Dec/2016:14:44:48 -0200] "POST /rest-1.0/api/pedido/inserir HTTP/1.1" 500 5465
127.0.0.1 - - [22/Dec/2016:14:44:48 -0200] "POST /rest-1.0/api/pedido/inserir HTTP/1.1" 500 5465
127.0.0.1 - - [22/Dec/2016:14:47:58 -0200] "POST /rest-1.0/api/pedido/inserir HTTP/1.1" 200 -
127.0.0.1 - - [22/Dec/2016:14:47:58 -0200] "POST /rest-1.0/api/pedido/inserir HTTP/1.1" 200 -
127.0.0.1 - - [22/Dec/2016:14:48:18 -0200] "POST /rest-1.0/api/pedido/inserir HTTP/1.1" 500 5509
127.0.0.1 - - [22/Dec/2016:14:48:19 -0200] "POST /rest-1.0/api/pedido/inserir HTTP/1.1" 500 5509
127.0.0.1 - - [22/Dec/2016:14:48:19 -0200] "POST /rest-1.0/api/pedido/inserir HTTP/1.1" 500 5509
127.0.0.1 - - [22/Dec/2016:14:48:19 -0200] "POST /rest-1.0/api/pedido/inserir HTTP/1.1" 500 5509
127.0.0.1 - - [22/Dec/2016:14:48:19 -0200] "POST /rest-1.0/api/pedido/inserir HTTP/1.1" 500 5509
127.0.0.1 - - [22/Dec/2016:14:52:01 -0200] "POST /rest-1.0/api/pedido/inserir HTTP/1.1" 200 -
127.0.0.1 - - [22/Dec/2016:14:52:15 -0200] "POST /rest-1.0/api/pedido/inserir HTTP/1.1" 500 5465
127.0.0.1 - - [22/Dec/2016:14:52:36 -0200] "POST /rest-1.0/api/pedido/inserir HTTP/1.1" 200 -
127.0.0.1 - - [22/Dec/2016:14:52:44 -0200] "POST /rest-1.0/api/pedido/inserir HTTP/1.1" 500 5465
127.0.0.1 - - [22/Dec/2016:14:54:56 -0200] "POST /rest-1.0/api/pedido/inserir HTTP/1.1" 200 -
127.0.0.1 - - [22/Dec/2016:14:55:02 -0200] "POST /rest-1.0/api/pedido/inserir HTTP/1.1" 415 1135
127.0.0.1 - - [22/Dec/2016:14:56:00 -0200] "POST /rest-1.0/api/pedido/inserir HTTP/1.1" 200 -
127.0.0.1 - - [22/Dec/2016:14:56:08 -0200] "POST /rest-1.0/api/pedido/inserir HTTP/1.1" 415 1135
127.0.0.1 - - [22/Dec/2016:15:03:30 -0200] "POST /rest-1.0/api/pedido/inserir HTTP/1.1" 200 -
127.0.0.1 - - [22/Dec/2016:15:03:34 -0200] "POST /rest-1.0/api/pedido/inserir HTTP/1.1" 415 1135
127.0.0.1 - - [22/Dec/2016:15:09:21 -0200] "POST /rest-1.0/api/pedido/inserir HTTP/1.1" 415 1135
127.0.0.1 - - [22/Dec/2016:15:09:56 -0200] "POST /rest-1.0/api/pedido/inserir HTTP/1.1" 415 1135
127.0.0.1 - - [22/Dec/2016:15:10:31 -0200] "POST /rest-1.0/api/pedido/inserir HTTP/1.1" 200 -
127.0.0.1 - - [22/Dec/2016:15:10:35 -0200] "POST /rest-1.0/api/pedido/inserir HTTP/1.1" 200 -
127.0.0.1 - - [22/Dec/2016:15:10:39 -0200] "POST /rest-1.0/api/pedido/inserir HTTP/1.1" 200 -
127.0.0.1 - - [22/Dec/2016:15:10:39 -0200] "POST /rest-1.0/api/pedido/inserir HTTP/1.1" 200 -
127.0.0.1 - - [22/Dec/2016:15:10:39 -0200] "POST /rest-1.0/api/pedido/inserir HTTP/1.1" 200 -
127.0.0.1 - - [22/Dec/2016:15:10:39 -0200] "POST /rest-1.0/api/pedido/inserir HTTP/1.1" 200 -
127.0.0.1 - - [22/Dec/2016:15:10:39 -0200] "POST /rest-1.0/api/pedido/inserir HTTP/1.1" 200 -
127.0.0.1 - - [22/Dec/2016:15:10:40 -0200] "POST /rest-1.0/api/pedido/inserir HTTP/1.1" 200 -
127.0.0.1 - - [22/Dec/2016:15:10:40 -0200] "POST /rest-1.0/api/pedido/inserir HTTP/1.1" 200 -
127.0.0.1 - - [22/Dec/2016:15:10:40 -0200] "POST /rest-1.0/api/pedido/inserir HTTP/1.1" 200 -
127.0.0.1 - - [22/Dec/2016:15:11:45 -0200] "POST /rest-1.0/api/pedido/inserir HTTP/1.1" 200 -
127.0.0.1 - - [22/Dec/2016:15:11:45 -0200] "POST /rest-1.0/api/pedido/inserir HTTP/1.1" 200 -
127.0.0.1 - - [22/Dec/2016:15:11:45 -0200] "POST /rest-1.0/api/pedido/inserir HTTP/1.1" 200 -
127.0.0.1 - - [22/Dec/2016:15:11:45 -0200] "POST /rest-1.0/api/pedido/inserir HTTP/1.1" 200 -
127.0.0.1 - - [22/Dec/2016:15:11:46 -0200] "POST /rest-1.0/api/pedido/inserir HTTP/1.1" 200 -
127.0.0.1 - - [22/Dec/2016:15:11:46 -0200] "POST /rest-1.0/api/pedido/inserir HTTP/1.1" 200 -
127.0.0.1 - - [22/Dec/2016:15:11:46 -0200] "POST /rest-1.0/api/pedido/inserir HTTP/1.1" 200 -
127.0.0.1 - - [22/Dec/2016:15:11:46 -0200] "POST /rest-1.0/api/pedido/inserir HTTP/1.1" 200 -
127.0.0.1 - - [22/Dec/2016:15:11:46 -0200] "POST /rest-1.0/api/pedido/inserir HTTP/1.1" 200 -
127.0.0.1 - - [22/Dec/2016:15:11:47 -0200] "POST /rest-1.0/api/pedido/inserir HTTP/1.1" 200 -
127.0.0.1 - - [22/Dec/2016:15:11:47 -0200] "POST /rest-1.0/api/pedido/inserir HTTP/1.1" 200 -
127.0.0.1 - - [22/Dec/2016:15:11:47 -0200] "POST /rest-1.0/api/pedido/inserir HTTP/1.1" 200 -
127.0.0.1 - - [22/Dec/2016:15:11:47 -0200] "POST /rest-1.0/api/pedido/inserir HTTP/1.1" 200 -
127.0.0.1 - - [22/Dec/2016:15:11:47 -0200] "POST /rest-1.0/api/pedido/inserir HTTP/1.1" 200 -
127.0.0.1 - - [22/Dec/2016:15:11:48 -0200] "POST /rest-1.0/api/pedido/inserir HTTP/1.1" 200 -
127.0.0.1 - - [22/Dec/2016:15:11:48 -0200] "POST /rest-1.0/api/pedido/inserir HTTP/1.1" 200 -
127.0.0.1 - - [22/Dec/2016:15:11:48 -0200] "POST /rest-1.0/api/pedido/inserir HTTP/1.1" 200 -
127.0.0.1 - - [22/Dec/2016:15:11:48 -0200] "POST /rest-1.0/api/pedido/inserir HTTP/1.1" 200 -
127.0.0.1 - - [22/Dec/2016:15:11:48 -0200] "POST /rest-1.0/api/pedido/inserir HTTP/1.1" 200 -
127.0.0.1 - - [22/Dec/2016:15:11:48 -0200] "POST /rest-1.0/api/pedido/inserir HTTP/1.1" 200 -
127.0.0.1 - - [22/Dec/2016:15:11:49 -0200] "POST /rest-1.0/api/pedido/inserir HTTP/1.1" 200 -
127.0.0.1 - - [22/Dec/2016:15:11:49 -0200] "POST /rest-1.0/api/pedido/inserir HTTP/1.1" 200 -
127.0.0.1 - - [22/Dec/2016:15:11:49 -0200] "POST /rest-1.0/api/pedido/inserir HTTP/1.1" 200 -
127.0.0.1 - - [22/Dec/2016:15:11:49 -0200] "POST /rest-1.0/api/pedido/inserir HTTP/1.1" 200 -
127.0.0.1 - - [22/Dec/2016:15:11:49 -0200] "POST /rest-1.0/api/pedido/inserir HTTP/1.1" 200 -
127.0.0.1 - - [22/Dec/2016:15:11:50 -0200] "POST /rest-1.0/api/pedido/inserir HTTP/1.1" 200 -
127.0.0.1 - - [22/Dec/2016:15:11:50 -0200] "POST /rest-1.0/api/pedido/inserir HTTP/1.1" 200 -
127.0.0.1 - - [22/Dec/2016:15:11:50 -0200] "POST /rest-1.0/api/pedido/inserir HTTP/1.1" 200 -
127.0.0.1 - - [22/Dec/2016:15:11:50 -0200] "POST /rest-1.0/api/pedido/inserir HTTP/1.1" 200 -
127.0.0.1 - - [22/Dec/2016:15:11:50 -0200] "POST /rest-1.0/api/pedido/inserir HTTP/1.1" 200 -
127.0.0.1 - - [22/Dec/2016:15:11:51 -0200] "POST /rest-1.0/api/pedido/inserir HTTP/1.1" 200 -
127.0.0.1 - - [22/Dec/2016:15:11:51 -0200] "POST /rest-1.0/api/pedido/inserir HTTP/1.1" 200 -
127.0.0.1 - - [22/Dec/2016:15:11:51 -0200] "POST /rest-1.0/api/pedido/inserir HTTP/1.1" 200 -
127.0.0.1 - - [22/Dec/2016:15:11:51 -0200] "POST /rest-1.0/api/pedido/inserir HTTP/1.1" 200 -
127.0.0.1 - - [22/Dec/2016:15:11:51 -0200] "POST /rest-1.0/api/pedido/inserir HTTP/1.1" 200 -
127.0.0.1 - - [22/Dec/2016:15:11:52 -0200] "POST /rest-1.0/api/pedido/inserir HTTP/1.1" 200 -
127.0.0.1 - - [22/Dec/2016:15:11:52 -0200] "POST /rest-1.0/api/pedido/inserir HTTP/1.1" 200 -
127.0.0.1 - - [22/Dec/2016:15:11:52 -0200] "POST /rest-1.0/api/pedido/inserir HTTP/1.1" 200 -
127.0.0.1 - - [22/Dec/2016:15:11:52 -0200] "POST /rest-1.0/api/pedido/inserir HTTP/1.1" 200 -
127.0.0.1 - - [22/Dec/2016:15:11:52 -0200] "POST /rest-1.0/api/pedido/inserir HTTP/1.1" 200 -
127.0.0.1 - - [22/Dec/2016:15:11:52 -0200] "POST /rest-1.0/api/pedido/inserir HTTP/1.1" 200 -
127.0.0.1 - - [22/Dec/2016:15:11:53 -0200] "POST /rest-1.0/api/pedido/inserir HTTP/1.1" 200 -
127.0.0.1 - - [22/Dec/2016:15:11:53 -0200] "POST /rest-1.0/api/pedido/inserir HTTP/1.1" 200 -
127.0.0.1 - - [22/Dec/2016:15:11:53 -0200] "POST /rest-1.0/api/pedido/inserir HTTP/1.1" 200 -
127.0.0.1 - - [22/Dec/2016:15:11:53 -0200] "POST /rest-1.0/api/pedido/inserir HTTP/1.1" 200 -
127.0.0.1 - - [22/Dec/2016:15:11:53 -0200] "POST /rest-1.0/api/pedido/inserir HTTP/1.1" 200 -
127.0.0.1 - - [22/Dec/2016:15:11:54 -0200] "POST /rest-1.0/api/pedido/inserir HTTP/1.1" 200 -
127.0.0.1 - - [22/Dec/2016:15:11:54 -0200] "POST /rest-1.0/api/pedido/inserir HTTP/1.1" 200 -
127.0.0.1 - - [22/Dec/2016:15:11:54 -0200] "POST /rest-1.0/api/pedido/inserir HTTP/1.1" 200 -
127.0.0.1 - - [22/Dec/2016:15:11:54 -0200] "POST /rest-1.0/api/pedido/inserir HTTP/1.1" 200 -
127.0.0.1 - - [22/Dec/2016:15:11:54 -0200] "POST /rest-1.0/api/pedido/inserir HTTP/1.1" 200 -
127.0.0.1 - - [22/Dec/2016:15:11:54 -0200] "POST /rest-1.0/api/pedido/inserir HTTP/1.1" 200 -
127.0.0.1 - - [22/Dec/2016:15:11:55 -0200] "POST /rest-1.0/api/pedido/inserir HTTP/1.1" 200 -
127.0.0.1 - - [22/Dec/2016:15:11:55 -0200] "POST /rest-1.0/api/pedido/inserir HTTP/1.1" 200 -
127.0.0.1 - - [22/Dec/2016:15:11:55 -0200] "POST /rest-1.0/api/pedido/inserir HTTP/1.1" 200 -
127.0.0.1 - - [22/Dec/2016:15:11:55 -0200] "POST /rest-1.0/api/pedido/inserir HTTP/1.1" 200 -
127.0.0.1 - - [22/Dec/2016:15:11:55 -0200] "POST /rest-1.0/api/pedido/inserir HTTP/1.1" 200 -
127.0.0.1 - - [22/Dec/2016:15:11:56 -0200] "POST /rest-1.0/api/pedido/inserir HTTP/1.1" 200 -
127.0.0.1 - - [22/Dec/2016:15:11:56 -0200] "POST /rest-1.0/api/pedido/inserir HTTP/1.1" 200 -
127.0.0.1 - - [22/Dec/2016:15:11:56 -0200] "POST /rest-1.0/api/pedido/inserir HTTP/1.1" 200 -
127.0.0.1 - - [22/Dec/2016:15:11:56 -0200] "POST /rest-1.0/api/pedido/inserir HTTP/1.1" 200 -
127.0.0.1 - - [22/Dec/2016:15:11:56 -0200] "POST /rest-1.0/api/pedido/inserir HTTP/1.1" 200 -
127.0.0.1 - - [22/Dec/2016:15:11:56 -0200] "POST /rest-1.0/api/pedido/inserir HTTP/1.1" 200 -
127.0.0.1 - - [22/Dec/2016:15:11:57 -0200] "POST /rest-1.0/api/pedido/inserir HTTP/1.1" 200 -
127.0.0.1 - - [22/Dec/2016:15:11:57 -0200] "POST /rest-1.0/api/pedido/inserir HTTP/1.1" 200 -
127.0.0.1 - - [22/Dec/2016:15:11:57 -0200] "POST /rest-1.0/api/pedido/inserir HTTP/1.1" 200 -
127.0.0.1 - - [22/Dec/2016:15:11:57 -0200] "POST /rest-1.0/api/pedido/inserir HTTP/1.1" 200 -
127.0.0.1 - - [22/Dec/2016:15:11:57 -0200] "POST /rest-1.0/api/pedido/inserir HTTP/1.1" 200 -
127.0.0.1 - - [22/Dec/2016:15:11:58 -0200] "POST /rest-1.0/api/pedido/inserir HTTP/1.1" 200 -
127.0.0.1 - - [22/Dec/2016:15:11:58 -0200] "POST /rest-1.0/api/pedido/inserir HTTP/1.1" 200 -
127.0.0.1 - - [22/Dec/2016:15:11:58 -0200] "POST /rest-1.0/api/pedido/inserir HTTP/1.1" 200 -
127.0.0.1 - - [22/Dec/2016:15:11:58 -0200] "POST /rest-1.0/api/pedido/inserir HTTP/1.1" 200 -
127.0.0.1 - - [22/Dec/2016:15:11:58 -0200] "POST /rest-1.0/api/pedido/inserir HTTP/1.1" 200 -
127.0.0.1 - - [22/Dec/2016:15:11:58 -0200] "POST /rest-1.0/api/pedido/inserir HTTP/1.1" 200 -
127.0.0.1 - - [22/Dec/2016:15:11:59 -0200] "POST /rest-1.0/api/pedido/inserir HTTP/1.1" 200 -
127.0.0.1 - - [22/Dec/2016:15:11:59 -0200] "POST /rest-1.0/api/pedido/inserir HTTP/1.1" 200 -
127.0.0.1 - - [22/Dec/2016:15:11:59 -0200] "POST /rest-1.0/api/pedido/inserir HTTP/1.1" 200 -
127.0.0.1 - - [22/Dec/2016:15:11:59 -0200] "POST /rest-1.0/api/pedido/inserir HTTP/1.1" 200 -
127.0.0.1 - - [22/Dec/2016:15:11:59 -0200] "POST /rest-1.0/api/pedido/inserir HTTP/1.1" 200 -
127.0.0.1 - - [22/Dec/2016:15:12:00 -0200] "POST /rest-1.0/api/pedido/inserir HTTP/1.1" 200 -
127.0.0.1 - - [22/Dec/2016:15:12:00 -0200] "POST /rest-1.0/api/pedido/inserir HTTP/1.1" 200 -
127.0.0.1 - - [22/Dec/2016:15:12:00 -0200] "POST /rest-1.0/api/pedido/inserir HTTP/1.1" 200 -
127.0.0.1 - - [22/Dec/2016:15:12:00 -0200] "POST /rest-1.0/api/pedido/inserir HTTP/1.1" 200 -
127.0.0.1 - - [22/Dec/2016:15:12:00 -0200] "POST /rest-1.0/api/pedido/inserir HTTP/1.1" 200 -
127.0.0.1 - - [22/Dec/2016:15:12:00 -0200] "POST /rest-1.0/api/pedido/inserir HTTP/1.1" 200 -
127.0.0.1 - - [22/Dec/2016:15:12:01 -0200] "POST /rest-1.0/api/pedido/inserir HTTP/1.1" 200 -
127.0.0.1 - - [22/Dec/2016:15:12:01 -0200] "POST /rest-1.0/api/pedido/inserir HTTP/1.1" 200 -
127.0.0.1 - - [22/Dec/2016:15:12:01 -0200] "POST /rest-1.0/api/pedido/inserir HTTP/1.1" 200 -
127.0.0.1 - - [22/Dec/2016:15:12:01 -0200] "POST /rest-1.0/api/pedido/inserir HTTP/1.1" 200 -
127.0.0.1 - - [22/Dec/2016:15:12:01 -0200] "POST /rest-1.0/api/pedido/inserir HTTP/1.1" 200 -
127.0.0.1 - - [22/Dec/2016:15:12:01 -0200] "POST /rest-1.0/api/pedido/inserir HTTP/1.1" 200 -
127.0.0.1 - - [22/Dec/2016:15:12:02 -0200] "POST /rest-1.0/api/pedido/inserir HTTP/1.1" 200 -
127.0.0.1 - - [22/Dec/2016:15:12:02 -0200] "POST /rest-1.0/api/pedido/inserir HTTP/1.1" 200 -
127.0.0.1 - - [22/Dec/2016:15:12:02 -0200] "POST /rest-1.0/api/pedido/inserir HTTP/1.1" 200 -
127.0.0.1 - - [22/Dec/2016:15:12:02 -0200] "POST /rest-1.0/api/pedido/inserir HTTP/1.1" 200 -
127.0.0.1 - - [22/Dec/2016:15:12:02 -0200] "POST /rest-1.0/api/pedido/inserir HTTP/1.1" 200 -
127.0.0.1 - - [22/Dec/2016:15:12:03 -0200] "POST /rest-1.0/api/pedido/inserir HTTP/1.1" 200 -
127.0.0.1 - - [22/Dec/2016:15:12:03 -0200] "POST /rest-1.0/api/pedido/inserir HTTP/1.1" 200 -
127.0.0.1 - - [22/Dec/2016:15:12:03 -0200] "POST /rest-1.0/api/pedido/inserir HTTP/1.1" 200 -
127.0.0.1 - - [22/Dec/2016:15:12:03 -0200] "POST /rest-1.0/api/pedido/inserir HTTP/1.1" 200 -
127.0.0.1 - - [22/Dec/2016:15:13:43 -0200] "POST /rest-1.0/api/pedido/inserir HTTP/1.1" 200 -
127.0.0.1 - - [22/Dec/2016:15:13:44 -0200] "POST /rest-1.0/api/pedido/inserir HTTP/1.1" 200 -
127.0.0.1 - - [22/Dec/2016:15:13:44 -0200] "POST /rest-1.0/api/pedido/inserir HTTP/1.1" 200 -
127.0.0.1 - - [22/Dec/2016:15:13:44 -0200] "POST /rest-1.0/api/pedido/inserir HTTP/1.1" 200 -
127.0.0.1 - - [22/Dec/2016:15:13:44 -0200] "POST /rest-1.0/api/pedido/inserir HTTP/1.1" 200 -
127.0.0.1 - - [22/Dec/2016:15:13:44 -0200] "POST /rest-1.0/api/pedido/inserir HTTP/1.1" 200 -
127.0.0.1 - - [22/Dec/2016:15:13:45 -0200] "POST /rest-1.0/api/pedido/inserir HTTP/1.1" 200 -
127.0.0.1 - - [22/Dec/2016:15:13:45 -0200] "POST /rest-1.0/api/pedido/inserir HTTP/1.1" 200 -
127.0.0.1 - - [22/Dec/2016:15:13:45 -0200] "POST /rest-1.0/api/pedido/inserir HTTP/1.1" 200 -
127.0.0.1 - - [22/Dec/2016:15:13:45 -0200] "POST /rest-1.0/api/pedido/inserir HTTP/1.1" 200 -
127.0.0.1 - - [22/Dec/2016:15:13:45 -0200] "POST /rest-1.0/api/pedido/inserir HTTP/1.1" 200 -
127.0.0.1 - - [22/Dec/2016:15:13:46 -0200] "POST /rest-1.0/api/pedido/inserir HTTP/1.1" 200 -
127.0.0.1 - - [22/Dec/2016:15:13:46 -0200] "POST /rest-1.0/api/pedido/inserir HTTP/1.1" 200 -
127.0.0.1 - - [22/Dec/2016:15:13:46 -0200] "POST /rest-1.0/api/pedido/inserir HTTP/1.1" 200 -
127.0.0.1 - - [22/Dec/2016:15:13:46 -0200] "POST /rest-1.0/api/pedido/inserir HTTP/1.1" 200 -
127.0.0.1 - - [22/Dec/2016:15:13:46 -0200] "POST /rest-1.0/api/pedido/inserir HTTP/1.1" 200 -
127.0.0.1 - - [22/Dec/2016:15:13:46 -0200] "POST /rest-1.0/api/pedido/inserir HTTP/1.1" 200 -
127.0.0.1 - - [22/Dec/2016:15:13:47 -0200] "POST /rest-1.0/api/pedido/inserir HTTP/1.1" 200 -
127.0.0.1 - - [22/Dec/2016:15:13:47 -0200] "POST /rest-1.0/api/pedido/inserir HTTP/1.1" 200 -
127.0.0.1 - - [22/Dec/2016:15:13:47 -0200] "POST /rest-1.0/api/pedido/inserir HTTP/1.1" 200 -
127.0.0.1 - - [22/Dec/2016:15:13:47 -0200] "POST /rest-1.0/api/pedido/inserir HTTP/1.1" 200 -
127.0.0.1 - - [22/Dec/2016:15:13:47 -0200] "POST /rest-1.0/api/pedido/inserir HTTP/1.1" 200 -
127.0.0.1 - - [22/Dec/2016:15:13:48 -0200] "POST /rest-1.0/api/pedido/inserir HTTP/1.1" 200 -
127.0.0.1 - - [22/Dec/2016:15:13:48 -0200] "POST /rest-1.0/api/pedido/inserir HTTP/1.1" 200 -
127.0.0.1 - - [22/Dec/2016:15:13:48 -0200] "POST /rest-1.0/api/pedido/inserir HTTP/1.1" 200 -
127.0.0.1 - - [22/Dec/2016:15:13:48 -0200] "POST /rest-1.0/api/pedido/inserir HTTP/1.1" 200 -
127.0.0.1 - - [22/Dec/2016:15:13:48 -0200] "POST /rest-1.0/api/pedido/inserir HTTP/1.1" 200 -
127.0.0.1 - - [22/Dec/2016:15:13:49 -0200] "POST /rest-1.0/api/pedido/inserir HTTP/1.1" 200 -
127.0.0.1 - - [22/Dec/2016:15:13:49 -0200] "POST /rest-1.0/api/pedido/inserir HTTP/1.1" 200 -
127.0.0.1 - - [22/Dec/2016:15:13:49 -0200] "POST /rest-1.0/api/pedido/inserir HTTP/1.1" 200 -
127.0.0.1 - - [22/Dec/2016:15:13:49 -0200] "POST /rest-1.0/api/pedido/inserir HTTP/1.1" 200 -
127.0.0.1 - - [22/Dec/2016:15:13:49 -0200] "POST /rest-1.0/api/pedido/inserir HTTP/1.1" 200 -
127.0.0.1 - - [22/Dec/2016:15:13:49 -0200] "POST /rest-1.0/api/pedido/inserir HTTP/1.1" 200 -
127.0.0.1 - - [22/Dec/2016:15:13:50 -0200] "POST /rest-1.0/api/pedido/inserir HTTP/1.1" 200 -
127.0.0.1 - - [22/Dec/2016:15:13:50 -0200] "POST /rest-1.0/api/pedido/inserir HTTP/1.1" 200 -
127.0.0.1 - - [22/Dec/2016:15:13:50 -0200] "POST /rest-1.0/api/pedido/inserir HTTP/1.1" 200 -
127.0.0.1 - - [22/Dec/2016:15:13:50 -0200] "POST /rest-1.0/api/pedido/inserir HTTP/1.1" 200 -
127.0.0.1 - - [22/Dec/2016:15:13:50 -0200] "POST /rest-1.0/api/pedido/inserir HTTP/1.1" 200 -
127.0.0.1 - - [22/Dec/2016:15:13:51 -0200] "POST /rest-1.0/api/pedido/inserir HTTP/1.1" 200 -
127.0.0.1 - - [22/Dec/2016:15:13:51 -0200] "POST /rest-1.0/api/pedido/inserir HTTP/1.1" 200 -
127.0.0.1 - - [22/Dec/2016:15:13:51 -0200] "POST /rest-1.0/api/pedido/inserir HTTP/1.1" 200 -
127.0.0.1 - - [22/Dec/2016:15:13:51 -0200] "POST /rest-1.0/api/pedido/inserir HTTP/1.1" 200 -
127.0.0.1 - - [22/Dec/2016:15:13:51 -0200] "POST /rest-1.0/api/pedido/inserir HTTP/1.1" 200 -
127.0.0.1 - - [22/Dec/2016:15:13:52 -0200] "POST /rest-1.0/api/pedido/inserir HTTP/1.1" 200 -
127.0.0.1 - - [22/Dec/2016:15:13:52 -0200] "POST /rest-1.0/api/pedido/inserir HTTP/1.1" 200 -
127.0.0.1 - - [22/Dec/2016:15:13:52 -0200] "POST /rest-1.0/api/pedido/inserir HTTP/1.1" 200 -
127.0.0.1 - - [22/Dec/2016:15:13:52 -0200] "POST /rest-1.0/api/pedido/inserir HTTP/1.1" 200 -
127.0.0.1 - - [22/Dec/2016:15:13:52 -0200] "POST /rest-1.0/api/pedido/inserir HTTP/1.1" 200 -
127.0.0.1 - - [22/Dec/2016:15:13:52 -0200] "POST /rest-1.0/api/pedido/inserir HTTP/1.1" 200 -
127.0.0.1 - - [22/Dec/2016:15:13:53 -0200] "POST /rest-1.0/api/pedido/inserir HTTP/1.1" 200 -
127.0.0.1 - - [22/Dec/2016:15:13:53 -0200] "POST /rest-1.0/api/pedido/inserir HTTP/1.1" 200 -
127.0.0.1 - - [22/Dec/2016:15:13:53 -0200] "POST /rest-1.0/api/pedido/inserir HTTP/1.1" 200 -
127.0.0.1 - - [22/Dec/2016:15:13:53 -0200] "POST /rest-1.0/api/pedido/inserir HTTP/1.1" 200 -
127.0.0.1 - - [22/Dec/2016:15:13:53 -0200] "POST /rest-1.0/api/pedido/inserir HTTP/1.1" 200 -
127.0.0.1 - - [22/Dec/2016:15:13:54 -0200] "POST /rest-1.0/api/pedido/inserir HTTP/1.1" 200 -
127.0.0.1 - - [22/Dec/2016:15:13:54 -0200] "POST /rest-1.0/api/pedido/inserir HTTP/1.1" 200 -
127.0.0.1 - - [22/Dec/2016:15:13:54 -0200] "POST /rest-1.0/api/pedido/inserir HTTP/1.1" 200 -
127.0.0.1 - - [22/Dec/2016:15:13:54 -0200] "POST /rest-1.0/api/pedido/inserir HTTP/1.1" 200 -
127.0.0.1 - - [22/Dec/2016:15:13:54 -0200] "POST /rest-1.0/api/pedido/inserir HTTP/1.1" 200 -
127.0.0.1 - - [22/Dec/2016:15:13:55 -0200] "POST /rest-1.0/api/pedido/inserir HTTP/1.1" 200 -
127.0.0.1 - - [22/Dec/2016:15:13:55 -0200] "POST /rest-1.0/api/pedido/inserir HTTP/1.1" 200 -
127.0.0.1 - - [22/Dec/2016:15:13:55 -0200] "POST /rest-1.0/api/pedido/inserir HTTP/1.1" 200 -
127.0.0.1 - - [22/Dec/2016:15:13:55 -0200] "POST /rest-1.0/api/pedido/inserir HTTP/1.1" 200 -
127.0.0.1 - - [22/Dec/2016:15:13:55 -0200] "POST /rest-1.0/api/pedido/inserir HTTP/1.1" 200 -
127.0.0.1 - - [22/Dec/2016:15:13:55 -0200] "POST /rest-1.0/api/pedido/inserir HTTP/1.1" 200 -
127.0.0.1 - - [22/Dec/2016:15:13:56 -0200] "POST /rest-1.0/api/pedido/inserir HTTP/1.1" 200 -
127.0.0.1 - - [22/Dec/2016:15:24:37 -0200] "POST /rest-1.0/api/pedido/inserir HTTP/1.1" 200 -
127.0.0.1 - - [22/Dec/2016:15:24:37 -0200] "POST /rest-1.0/api/pedido/inserir HTTP/1.1" 200 -
127.0.0.1 - - [22/Dec/2016:15:24:37 -0200] "POST /rest-1.0/api/pedido/inserir HTTP/1.1" 200 -
127.0.0.1 - - [22/Dec/2016:15:24:37 -0200] "POST /rest-1.0/api/pedido/inserir HTTP/1.1" 200 -
127.0.0.1 - - [22/Dec/2016:15:24:37 -0200] "POST /rest-1.0/api/pedido/inserir HTTP/1.1" 200 -
127.0.0.1 - - [22/Dec/2016:15:24:37 -0200] "POST /rest-1.0/api/pedido/inserir HTTP/1.1" 200 -
127.0.0.1 - - [22/Dec/2016:15:24:37 -0200] "POST /rest-1.0/api/pedido/inserir HTTP/1.1" 200 -
127.0.0.1 - - [22/Dec/2016:15:24:37 -0200] "POST /rest-1.0/api/pedido/inserir HTTP/1.1" 200 -
127.0.0.1 - - [22/Dec/2016:15:24:37 -0200] "POST /rest-1.0/api/pedido/inserir HTTP/1.1" 200 -
127.0.0.1 - - [22/Dec/2016:15:24:37 -0200] "POST /rest-1.0/api/pedido/inserir HTTP/1.1" 200 -
127.0.0.1 - - [22/Dec/2016:15:24:37 -0200] "POST /rest-1.0/api/pedido/inserir HTTP/1.1" 200 -
127.0.0.1 - - [22/Dec/2016:15:24:37 -0200] "POST /rest-1.0/api/pedido/inserir HTTP/1.1" 200 -
127.0.0.1 - - [22/Dec/2016:15:24:38 -0200] "POST /rest-1.0/api/pedido/inserir HTTP/1.1" 200 -
127.0.0.1 - - [22/Dec/2016:15:24:38 -0200] "POST /rest-1.0/api/pedido/inserir HTTP/1.1" 200 -
127.0.0.1 - - [22/Dec/2016:15:24:38 -0200] "POST /rest-1.0/api/pedido/inserir HTTP/1.1" 200 -
127.0.0.1 - - [22/Dec/2016:15:24:38 -0200] "POST /rest-1.0/api/pedido/inserir HTTP/1.1" 200 -
127.0.0.1 - - [22/Dec/2016:15:24:38 -0200] "POST /rest-1.0/api/pedido/inserir HTTP/1.1" 200 -
127.0.0.1 - - [22/Dec/2016:15:25:18 -0200] "POST /rest-1.0/api/pedido/inserir HTTP/1.1" 200 -
127.0.0.1 - - [22/Dec/2016:15:25:18 -0200] "POST /rest-1.0/api/pedido/inserir HTTP/1.1" 200 -
127.0.0.1 - - [22/Dec/2016:15:25:18 -0200] "POST /rest-1.0/api/pedido/inserir HTTP/1.1" 200 -
127.0.0.1 - - [22/Dec/2016:15:25:18 -0200] "POST /rest-1.0/api/pedido/inserir HTTP/1.1" 200 -
127.0.0.1 - - [22/Dec/2016:15:25:18 -0200] "POST /rest-1.0/api/pedido/inserir HTTP/1.1" 200 -
127.0.0.1 - - [22/Dec/2016:15:25:19 -0200] "POST /rest-1.0/api/pedido/inserir HTTP/1.1" 200 -
127.0.0.1 - - [22/Dec/2016:15:25:19 -0200] "POST /rest-1.0/api/pedido/inserir HTTP/1.1" 200 -
127.0.0.1 - - [22/Dec/2016:15:26:02 -0200] "POST /rest-1.0/api/pedido/inserir HTTP/1.1" 200 -
127.0.0.1 - - [22/Dec/2016:15:26:02 -0200] "POST /rest-1.0/api/pedido/inserir HTTP/1.1" 200 -
127.0.0.1 - - [22/Dec/2016:15:26:02 -0200] "POST /rest-1.0/api/pedido/inserir HTTP/1.1" 200 -
127.0.0.1 - - [22/Dec/2016:15:26:03 -0200] "POST /rest-1.0/api/pedido/inserir HTTP/1.1" 200 -
127.0.0.1 - - [22/Dec/2016:15:26:03 -0200] "POST /rest-1.0/api/pedido/inserir HTTP/1.1" 200 -
127.0.0.1 - - [22/Dec/2016:15:26:03 -0200] "POST /rest-1.0/api/pedido/inserir HTTP/1.1" 200 -
127.0.0.1 - - [22/Dec/2016:15:26:03 -0200] "POST /rest-1.0/api/pedido/inserir HTTP/1.1" 200 -
127.0.0.1 - - [22/Dec/2016:15:26:03 -0200] "POST /rest-1.0/api/pedido/inserir HTTP/1.1" 200 -
127.0.0.1 - - [22/Dec/2016:15:26:03 -0200] "POST /rest-1.0/api/pedido/inserir HTTP/1.1" 200 -
127.0.0.1 - - [22/Dec/2016:15:26:04 -0200] "POST /rest-1.0/api/pedido/inserir HTTP/1.1" 200 -
127.0.0.1 - - [22/Dec/2016:15:26:04 -0200] "POST /rest-1.0/api/pedido/inserir HTTP/1.1" 200 -
127.0.0.1 - - [22/Dec/2016:15:26:04 -0200] "POST /rest-1.0/api/pedido/inserir HTTP/1.1" 200 -
127.0.0.1 - - [22/Dec/2016:15:26:58 -0200] "POST /rest-1.0/api/pedido/inserir HTTP/1.1" 200 -
127.0.0.1 - - [22/Dec/2016:15:26:58 -0200] "POST /rest-1.0/api/pedido/inserir HTTP/1.1" 200 -
127.0.0.1 - - [22/Dec/2016:15:26:58 -0200] "POST /rest-1.0/api/pedido/inserir HTTP/1.1" 200 -
127.0.0.1 - - [22/Dec/2016:15:26:58 -0200] "POST /rest-1.0/api/pedido/inserir HTTP/1.1" 200 -
127.0.0.1 - - [22/Dec/2016:15:26:58 -0200] "POST /rest-1.0/api/pedido/inserir HTTP/1.1" 200 -
127.0.0.1 - - [22/Dec/2016:15:26:59 -0200] "POST /rest-1.0/api/pedido/inserir HTTP/1.1" 200 -
127.0.0.1 - - [22/Dec/2016:15:26:59 -0200] "POST /rest-1.0/api/pedido/inserir HTTP/1.1" 200 -
127.0.0.1 - - [22/Dec/2016:15:26:59 -0200] "POST /rest-1.0/api/pedido/inserir HTTP/1.1" 200 -
127.0.0.1 - - [22/Dec/2016:15:26:59 -0200] "POST /rest-1.0/api/pedido/inserir HTTP/1.1" 200 -
127.0.0.1 - - [22/Dec/2016:15:26:59 -0200] "POST /rest-1.0/api/pedido/inserir HTTP/1.1" 200 -
127.0.0.1 - - [22/Dec/2016:15:26:59 -0200] "POST /rest-1.0/api/pedido/inserir HTTP/1.1" 200 -
127.0.0.1 - - [22/Dec/2016:15:27:00 -0200] "POST /rest-1.0/api/pedido/inserir HTTP/1.1" 200 -
127.0.0.1 - - [22/Dec/2016:15:27:00 -0200] "POST /rest-1.0/api/pedido/inserir HTTP/1.1" 200 -
127.0.0.1 - - [22/Dec/2016:15:27:22 -0200] "POST /rest-1.0/api/pedido/inserir HTTP/1.1" 200 -
127.0.0.1 - - [22/Dec/2016:15:27:22 -0200] "POST /rest-1.0/api/pedido/inserir HTTP/1.1" 200 -
127.0.0.1 - - [22/Dec/2016:15:27:22 -0200] "POST /rest-1.0/api/pedido/inserir HTTP/1.1" 200 -
127.0.0.1 - - [22/Dec/2016:15:27:23 -0200] "POST /rest-1.0/api/pedido/inserir HTTP/1.1" 200 -
127.0.0.1 - - [22/Dec/2016:15:27:23 -0200] "POST /rest-1.0/api/pedido/inserir HTTP/1.1" 200 -
127.0.0.1 - - [22/Dec/2016:15:27:23 -0200] "POST /rest-1.0/api/pedido/inserir HTTP/1.1" 200 -
127.0.0.1 - - [22/Dec/2016:15:27:23 -0200] "POST /rest-1.0/api/pedido/inserir HTTP/1.1" 200 -
127.0.0.1 - - [22/Dec/2016:15:27:23 -0200] "POST /rest-1.0/api/pedido/inserir HTTP/1.1" 200 -
127.0.0.1 - - [22/Dec/2016:15:27:23 -0200] "POST /rest-1.0/api/pedido/inserir HTTP/1.1" 200 -
127.0.0.1 - - [22/Dec/2016:15:27:24 -0200] "POST /rest-1.0/api/pedido/inserir HTTP/1.1" 200 -
127.0.0.1 - - [22/Dec/2016:15:27:24 -0200] "POST /rest-1.0/api/pedido/inserir HTTP/1.1" 200 -
127.0.0.1 - - [22/Dec/2016:15:31:53 -0200] "POST /rest-1.0/api/pedido/inserir HTTP/1.1" 200 -
127.0.0.1 - - [22/Dec/2016:15:31:53 -0200] "POST /rest-1.0/api/pedido/inserir HTTP/1.1" 200 -
127.0.0.1 - - [22/Dec/2016:15:31:53 -0200] "POST /rest-1.0/api/pedido/inserir HTTP/1.1" 200 -
127.0.0.1 - - [22/Dec/2016:15:31:53 -0200] "POST /rest-1.0/api/pedido/inserir HTTP/1.1" 200 -
127.0.0.1 - - [22/Dec/2016:15:31:53 -0200] "POST /rest-1.0/api/pedido/inserir HTTP/1.1" 200 -
127.0.0.1 - - [22/Dec/2016:15:31:54 -0200] "POST /rest-1.0/api/pedido/inserir HTTP/1.1" 200 -
127.0.0.1 - - [22/Dec/2016:15:31:54 -0200] "POST /rest-1.0/api/pedido/inserir HTTP/1.1" 200 -
127.0.0.1 - - [22/Dec/2016:15:31:54 -0200] "POST /rest-1.0/api/pedido/inserir HTTP/1.1" 200 -
127.0.0.1 - - [22/Dec/2016:15:31:54 -0200] "POST /rest-1.0/api/pedido/inserir HTTP/1.1" 200 -
127.0.0.1 - - [22/Dec/2016:15:31:54 -0200] "POST /rest-1.0/api/pedido/inserir HTTP/1.1" 200 -
127.0.0.1 - - [22/Dec/2016:15:31:54 -0200] "POST /rest-1.0/api/pedido/inserir HTTP/1.1" 200 -
127.0.0.1 - - [22/Dec/2016:15:32:55 -0200] "GET /rest-1.0/api/login/teste@email.com/123 HTTP/1.1" 200 91
127.0.0.1 - - [22/Dec/2016:15:33:09 -0200] "GET /rest-1.0/api/login/leonardo@email.com/123 HTTP/1.1" 200 93
127.0.0.1 - - [22/Dec/2016:15:34:37 -0200] "GET /rest-1.0/api/login/leonardo@email.com/123 HTTP/1.1" 200 93
127.0.0.1 - - [22/Dec/2016:15:34:37 -0200] "GET /rest-1.0/api/pedido/leonardo@email.com HTTP/1.1" 200 520
127.0.0.1 - - [22/Dec/2016:15:34:51 -0200] "GET /rest-1.0/api/login/teste@email.com/123 HTTP/1.1" 200 91
127.0.0.1 - - [22/Dec/2016:15:34:51 -0200] "GET /rest-1.0/api/pedido/teste@email.com HTTP/1.1" 200 5558
127.0.0.1 - - [22/Dec/2016:15:41:06 -0200] "GET /rest-1.0/api/login/teste@email.com/123 HTTP/1.1" 200 91
127.0.0.1 - - [22/Dec/2016:15:41:07 -0200] "GET /rest-1.0/api/pedido/teste@email.com HTTP/1.1" 200 5558
127.0.0.1 - - [22/Dec/2016:15:41:20 -0200] "GET /rest-1.0/api/pedido/teste@email.com HTTP/1.1" 200 12
127.0.0.1 - - [22/Dec/2016:15:43:09 -0200] "POST /rest-1.0/api/pedido/inserir HTTP/1.1" 200 -
127.0.0.1 - - [22/Dec/2016:15:43:09 -0200] "POST /rest-1.0/api/pedido/inserir HTTP/1.1" 200 -
127.0.0.1 - - [22/Dec/2016:15:43:09 -0200] "POST /rest-1.0/api/pedido/inserir HTTP/1.1" 200 -
127.0.0.1 - - [22/Dec/2016:15:43:09 -0200] "POST /rest-1.0/api/pedido/inserir HTTP/1.1" 200 -
127.0.0.1 - - [22/Dec/2016:15:43:09 -0200] "POST /rest-1.0/api/pedido/inserir HTTP/1.1" 200 -
127.0.0.1 - - [22/Dec/2016:15:43:10 -0200] "POST /rest-1.0/api/pedido/inserir HTTP/1.1" 200 -
127.0.0.1 - - [22/Dec/2016:15:43:10 -0200] "POST /rest-1.0/api/pedido/inserir HTTP/1.1" 200 -
127.0.0.1 - - [22/Dec/2016:15:43:10 -0200] "POST /rest-1.0/api/pedido/inserir HTTP/1.1" 200 -
127.0.0.1 - - [22/Dec/2016:15:43:17 -0200] "GET /rest-1.0/api/pedido/teste@email.com HTTP/1.1" 200 4045
127.0.0.1 - - [22/Dec/2016:15:50:30 -0200] "GET /rest-1.0/api/login/teste@email.com/123 HTTP/1.1" 200 91
127.0.0.1 - - [22/Dec/2016:15:50:30 -0200] "GET /rest-1.0/api/pedido/teste@email.com HTTP/1.1" 200 12
127.0.0.1 - - [22/Dec/2016:16:18:10 -0200] "GET /rest-1.0/api/login/teste@email.com/123 HTTP/1.1" 200 91
127.0.0.1 - - [22/Dec/2016:16:18:10 -0200] "GET /rest-1.0/api/pedido/teste@email.com HTTP/1.1" 200 12
